*** Darwin 13x9 ***
Turn = 0.
  012345678
0 .h.......
1 .t......f
2 .........
3 .........
4 .........
5 t......f.
6 .........
7 r........
8 .........
9 .........
0 ..r......
1 .........
2 .........

Turn = 2.
  012345678
0 ...h.....
1 .t......f
2 .........
3 .........
4 .........
5 t......f.
6 r........
7 .........
8 .........
9 .........
0 .........
1 .........
2 ..r......

Turn = 4.
  012345678
0 .....h...
1 .t......f
2 .........
3 .........
4 r........
5 r......f.
6 .........
7 .........
8 .........
9 .........
0 .........
1 .........
2 ...r.....

Turn = 6.
  012345678
0 .......h.
1 .t......f
2 r........
3 r........
4 .........
5 .......f.
6 .........
7 .........
8 .........
9 .........
0 .........
1 .........
2 .....r...

*** Darwin 13x8 ***
Turn = 0.
  01234567
0 ........
1 ........
2 ........
3 ........
4 ........
5 ....h...
6 ........
7 ........
8 ........
9 ........
0 ........
1 ........
2 ........

Turn = 1.
  01234567
0 ........
1 ........
2 ........
3 ........
4 ........
5 ........
6 ....h...
7 ........
8 ........
9 ........
0 ........
1 ........
2 ........

Turn = 2.
  01234567
0 ........
1 ........
2 ........
3 ........
4 ........
5 ........
6 ........
7 ....h...
8 ........
9 ........
0 ........
1 ........
2 ........

Turn = 3.
  01234567
0 ........
1 ........
2 ........
3 ........
4 ........
5 ........
6 ........
7 ........
8 ....h...
9 ........
0 ........
1 ........
2 ........

Turn = 4.
  01234567
0 ........
1 ........
2 ........
3 ........
4 ........
5 ........
6 ........
7 ........
8 ........
9 ....h...
0 ........
1 ........
2 ........

Turn = 5.
  01234567
0 ........
1 ........
2 ........
3 ........
4 ........
5 ........
6 ........
7 ........
8 ........
9 ........
0 ....h...
1 ........
2 ........

Turn = 6.
  01234567
0 ........
1 ........
2 ........
3 ........
4 ........
5 ........
6 ........
7 ........
8 ........
9 ........
0 ........
1 ....h...
2 ........

Turn = 7.
  01234567
0 ........
1 ........
2 ........
3 ........
4 ........
5 ........
6 ........
7 ........
8 ........
9 ........
0 ........
1 ........
2 ....h...

*** Darwin 14x13 ***
Turn = 0.
  0123456789012
0 ....h.....h..
1 .............
2 .....h.......
3 .............
4 ........h....
5 ..t..........
6 .............
7 .............
8 .............
9 .....r.......
0 .....f.......
1 .............
2 .............
3 .............

Turn = 3.
  0123456789012
0 .......h.....
1 .............
2 .............
3 ....h........
4 .....h.......
5 ..t..h.......
6 .............
7 .............
8 .............
9 ..r..........
0 .....f.......
1 .............
2 .............
3 .............

*** Darwin 14x10 ***
Turn = 0.
  0123456789
0 ..........
1 ..........
2 ........t.
3 .t........
4 ..........
5 ..........
6 ..r.......
7 ..........
8 ..........
9 ..........
0 .........t
1 ..........
2 ..........
3 .......t..

Turn = 1.
  0123456789
0 ..........
1 ..........
2 ........t.
3 .t........
4 ..........
5 ..r.......
6 ..........
7 ..........
8 ..........
9 ..........
0 .........t
1 ..........
2 ..........
3 .......t..

Turn = 2.
  0123456789
0 ..........
1 ..........
2 ........t.
3 .t........
4 ..r.......
5 ..........
6 ..........
7 ..........
8 ..........
9 ..........
0 .........t
1 ..........
2 ..........
3 .......t..

*** Darwin 6x6 ***
Turn = 0.
  012345
0 ....h.
1 .....h
2 ..t.f.
3 ......
4 ......
5 r.....

Turn = 1.
  012345
0 .....h
1 ....h.
2 ..t.f.
3 ......
4 r.....
5 ......

Turn = 2.
  012345
0 .....h
1 ...h..
2 ..t.f.
3 r.....
4 ......
5 ......

Turn = 3.
  012345
0 .....h
1 ..h...
2 r.t.f.
3 ......
4 ......
5 ......

*** Darwin 7x8 ***
Turn = 0.
  01234567
0 f.......
1 .....t..
2 ........
3 ........
4 ........
5 ........
6 ........

Turn = 3.
  01234567
0 f.......
1 .....t..
2 ........
3 ........
4 ........
5 ........
6 ........

Turn = 6.
  01234567
0 f.......
1 .....t..
2 ........
3 ........
4 ........
5 ........
6 ........

Turn = 9.
  01234567
0 f.......
1 .....t..
2 ........
3 ........
4 ........
5 ........
6 ........

*** Darwin 14x9 ***
Turn = 0.
  012345678
0 .........
1 .........
2 .........
3 .........
4 .........
5 .........
6 .........
7 .........
8 .....f...
9 .........
0 .........
1 .........
2 .........
3 .........

Turn = 6.
  012345678
0 .........
1 .........
2 .........
3 .........
4 .........
5 .........
6 .........
7 .........
8 .....f...
9 .........
0 .........
1 .........
2 .........
3 .........

*** Darwin 8x5 ***
Turn = 0.
  01234
0 .t...
1 r..f.
2 .....
3 .....
4 .....
5 ....f
6 ...r.
7 .....

Turn = 1.
  01234
0 .t...
1 ...f.
2 r....
3 .....
4 .....
5 ...rf
6 .....
7 .....

Turn = 2.
  01234
0 .t...
1 ...f.
2 .....
3 r....
4 ...r.
5 ....f
6 .....
7 .....

*** Darwin 11x11 ***
Turn = 0.
  01234567890
0 .......f...
1 ...........
2 ........f..
3 ......f....
4 ...........
5 ...........
6 ...........
7 ...........
8 ...........
9 ...........
0 ...........

Turn = 2.
  01234567890
0 .......f...
1 ...........
2 ........f..
3 ......f....
4 ...........
5 ...........
6 ...........
7 ...........
8 ...........
9 ...........
0 ...........

Turn = 4.
  01234567890
0 .......f...
1 ...........
2 ........f..
3 ......f....
4 ...........
5 ...........
6 ...........
7 ...........
8 ...........
9 ...........
0 ...........

Turn = 6.
  01234567890
0 .......f...
1 ...........
2 ........f..
3 ......f....
4 ...........
5 ...........
6 ...........
7 ...........
8 ...........
9 ...........
0 ...........

Turn = 8.
  01234567890
0 .......f...
1 ...........
2 ........f..
3 ......f....
4 ...........
5 ...........
6 ...........
7 ...........
8 ...........
9 ...........
0 ...........

*** Darwin 13x9 ***
Turn = 0.
  012345678
0 .........
1 .........
2 ....h....
3 .........
4 ..r...t..
5 .........
6 .....h...
7 ......h..
8 r........
9 ....r....
0 ......t..
1 .........
2 ........r

Turn = 2.
  012345678
0 .........
1 .........
2 ..r......
3 ..r......
4 ......t..
5 .........
6 .......h.
7 r........
8 .........
9 .....rt..
0 ......t.r
1 .........
2 .........

Turn = 4.
  012345678
0 .........
1 ..r......
2 r........
3 .........
4 ......t..
5 r........
6 ........h
7 .........
8 ........r
9 .....rr..
0 .....r...
1 .........
2 .........

Turn = 6.
  012345678
0 ..r......
1 r........
2 .........
3 r........
4 ......t..
5 .........
6 ........r
7 ........r
8 .........
9 ....r....
0 ...r..r..
1 .........
2 .........

*** Darwin 6x13 ***
Turn = 0.
  0123456789012
0 .............
1 .............
2 .............
3 ....t........
4 .............
5 .............

Turn = 2.
  0123456789012
0 .............
1 .............
2 .............
3 ....t........
4 .............
5 .............

*** Darwin 14x7 ***
Turn = 0.
  0123456
0 .......
1 .......
2 .t..r..
3 .......
4 .......
5 .......
6 .......
7 .......
8 .......
9 .......
0 .......
1 ....t..
2 .......
3 .t.....

Turn = 6.
  0123456
0 .......
1 .......
2 .t.....
3 .......
4 .......
5 .......
6 .......
7 .......
8 ....r..
9 .......
0 .......
1 ....t..
2 .......
3 .t.....

*** Darwin 9x10 ***
Turn = 0.
  0123456789
0 .t........
1 ....t.....
2 rf.....f..
3 .....f....
4 ..........
5 ..........
6 ..........
7 ..........
8 ..........

Turn = 1.
  0123456789
0 .t........
1 ....t.....
2 r.r....f..
3 .....f....
4 ..........
5 ..........
6 ..........
7 ..........
8 ..........

Turn = 2.
  0123456789
0 .t........
1 ....t.....
2 .r.r...f..
3 .....f....
4 ..........
5 ..........
6 ..........
7 ..........
8 ..........

Turn = 3.
  0123456789
0 .t........
1 ....t.....
2 ..r.r..f..
3 .....f....
4 ..........
5 ..........
6 ..........
7 ..........
8 ..........

Turn = 4.
  0123456789
0 .t........
1 ....t.....
2 ...r.r.f..
3 .....f....
4 ..........
5 ..........
6 ..........
7 ..........
8 ..........

Turn = 5.
  0123456789
0 .t........
1 ....t.....
2 ....r.rf..
3 .....f....
4 ..........
5 ..........
6 ..........
7 ..........
8 ..........

Turn = 6.
  0123456789
0 .t........
1 ....t.....
2 .....rr...
3 .....f.r..
4 ..........
5 ..........
6 ..........
7 ..........
8 ..........

Turn = 7.
  0123456789
0 .t........
1 ....t.....
2 .....r.r..
3 .....f....
4 .......r..
5 ..........
6 ..........
7 ..........
8 ..........

*** Darwin 6x5 ***
Turn = 0.
  01234
0 .....
1 f....
2 .....
3 .....
4 .....
5 .....

Turn = 1.
  01234
0 .....
1 f....
2 .....
3 .....
4 .....
5 .....

Turn = 2.
  01234
0 .....
1 f....
2 .....
3 .....
4 .....
5 .....

Turn = 3.
  01234
0 .....
1 f....
2 .....
3 .....
4 .....
5 .....

*** Darwin 10x12 ***
Turn = 0.
  012345678901
0 ...........f
1 .......r....
2 ...t.t......
3 ...h........
4 .r..........
5 ............
6 ............
7 ............
8 ............
9 .h......r...

Turn = 3.
  012345678901
0 ...........f
1 .....t......
2 ...t.t......
3 r...........
4 ............
5 ............
6 ...h........
7 ............
8 ............
9 h....r......

*** Darwin 10x8 ***
Turn = 0.
  01234567
0 ........
1 ......h.
2 ........
3 ........
4 ...t...h
5 .......r
6 ..h.....
7 ........
8 .r......
9 ..f.h...

Turn = 1.
  01234567
0 ......h.
1 ........
2 ........
3 ........
4 ...t...h
5 ......r.
6 ...h....
7 ........
8 ....h...
9 .rf.....

Turn = 2.
  01234567
0 ......h.
1 ........
2 ........
3 ........
4 ...t....
5 .....r.h
6 ....h...
7 ....h...
8 ........
9 .rf.....

*** Darwin 13x7 ***
Turn = 0.
  0123456
0 f......
1 .......
2 .h.....
3 .......
4 .......
5 ....f..
6 ..h....
7 .......
8 .......
9 ..r....
0 .......
1 .......
2 .......

Turn = 3.
  0123456
0 fh.....
1 .......
2 .......
3 ..h....
4 .......
5 ....f..
6 ..r....
7 .......
8 .......
9 .......
0 .......
1 .......
2 .......

Turn = 6.
  0123456
0 fhh....
1 .......
2 .......
3 ..r....
4 .......
5 ....f..
6 .......
7 .......
8 .......
9 .......
0 .......
1 .......
2 .......

*** Darwin 13x7 ***
Turn = 0.
  0123456
0 .......
1 .......
2 .......
3 ......r
4 .....t.
5 .......
6 .......
7 r...r..
8 .......
9 ..hh...
0 r.....h
1 .f.....
2 .......

Turn = 1.
  0123456
0 .......
1 .......
2 ......r
3 .......
4 .....t.
5 .......
6 .......
7 .r.r...
8 .......
9 rhh....
0 .......
1 .f....h
2 .......

Turn = 2.
  0123456
0 .......
1 ......r
2 .......
3 .......
4 .....t.
5 .......
6 .......
7 ..rr...
8 r......
9 hh.....
0 .......
1 .f.....
2 ......h

*** Darwin 11x10 ***
Turn = 0.
  0123456789
0 ..........
1 .......t..
2 ..........
3 ..........
4 ..........
5 ..........
6 ..........
7 ..........
8 .......h..
9 .t........
0 ....t.....

Turn = 2.
  0123456789
0 ..........
1 .......t..
2 ..........
3 ..........
4 ..........
5 ..........
6 ..........
7 ..........
8 ..........
9 .t........
0 ....t..h..

Turn = 4.
  0123456789
0 ..........
1 .......t..
2 ..........
3 ..........
4 ..........
5 ..........
6 ..........
7 ..........
8 ..........
9 .t........
0 ....t..h..
